Chapter 3 Data transformation | Oscars Over the Years
…
3.1.1 All supporting actors and actresses

3.1.2 All lead actors and actresses

3.1.3 Highest Grossing Movies from 1977-2021

3.1.4 Box office earnings of Oscar Best Picture

3.1.5 Oscar Winners with female lead

3.1.6 Box office of Winners with female lead and the Nominees that year

## # A tibble: 104 x 4
##     Year Movie                          Boxoffice Status
##    <dbl> <chr>                              <dbl> <chr> 
##  1  1935 It Happened One Night                5.2 W     
##  2  1935 Cleopatra                            5.5 N     
##  3  1935 Les Misérables                       3.4 N     
##  4  1935 The Gay Divorcee                     3.1 N     
##  5  1935 The Thin Man                         2.6 N     
##  6  1935 Imitation of Life                    3   N     
##  7  1935 The Barretts of Wimpole Street       3.6 N     
##  8  1935 The House of Rothschild              3   N     
##  9  1935 One Night of Love                    3.4 N     
## 10  1935 The White Parade                     2.7 N     
## # ... with 94 more rows
…
